{
    "help": "https://data.gov.il/api/3/action/help_show?name=datastore_search",
    "success": true,
    "result": {
        "include_total": true,
        "limit": 10,
        "records_format": "objects",
        "resource_id": "a0f56034-88db-4132-8803-854bcdb01ca1",
        "total_estimation_threshold": null,
        "records": [{
            "_id": 1,
            "מס רשיון": 3136141,
            "שם המתווך": "קריבי קטי קטיה",
            "עיר מגורים": "רמת השרון"
        }, {
            "_id": 2,
            "מס רשיון": 30412376,
            "שם המתווך": "לסט צפורה",
            "עיר מגורים": "רחובות"
        }, {
            "_id": 3,
            "מס רשיון": 31928656,
            "שם המתווך": "יהודה גדעון",
            "עיר מגורים": "נס ציונה"
        }, {
            "_id": 4,
            "מס רשיון": 30312709,
            "שם המתווך": "שדה דן",
            "עיר מגורים": "גני תקווה"
        }, {
            "_id": 5,
            "מס רשיון": 3175884,
            "שם המתווך": "אילות איריס",
            "עיר מגורים": "אבן יהודה"
        }, {
            "_id": 6,
            "מס רשיון": 3172073,
            "שם המתווך": "קורינאלדי גבאי קרן ברנדה",
            "עיר מגורים": "תל אביב - יפו"
        }, {
            "_id": 7,
            "מס רשיון": 3135072,
            "שם המתווך": "הלגוע עמיר",
            "עיר מגורים": "עפולה"
        }, {
            "_id": 8,
            "מס רשיון": 3222791,
            "שם המתווך": "אוחיון ישראל",
            "עיר מגורים": "פתח תקווה"
        }, {
            "_id": 9,
            "מס רשיון": 30412707,
            "שם המתווך": "כהן כהנא עפר",
            "עיר מגורים": "ירושלים"
        }, {
            "_id": 10,
            "מס רשיון": 3153608,
            "שם המתווך": "אטיאס אביב מרדכי",
            "עיר מגורים": "תל אביב - יפו"
        }],
        "fields": [{
            "id": "_id",
            "type": "int"
        }, {
            "id": "\u05de\u05e1 \u05e8\u05e9\u05d9\u05d5\u05df",
            "type": "numeric"
        }, {
            "id": "\u05e9\u05dd \u05d4\u05de\u05ea\u05d5\u05d5\u05da",
            "type": "text"
        }, {
            "id": "\u05e2\u05d9\u05e8 \u05de\u05d2\u05d5\u05e8\u05d9\u05dd",
            "type": "text"
        }],
        "_links": {
            "start": "/api/3/action/datastore_search?resource_id=a0f56034-88db-4132-8803-854bcdb01ca1&limit=10",
            "next": "/api/3/action/datastore_search?resource_id=a0f56034-88db-4132-8803-854bcdb01ca1&limit=10&offset=10"
        },
        "total": 26497,
        "total_was_estimated": false
    }
}